musings of the Professor
…
To start, lets download Eysenck’s (1974) dataset:

dataset <- read_delim("https://www.uvm.edu/~dhowell/methods8/DataFiles/Ex11-1.dat", 
    delim = "\t")

## Parsed with column specification:
## cols(
##   GROUP = col_integer(),
##   RECALL = col_integer()
## )

show(dataset)

## # A tibble: 50 x 2
##    GROUP RECALL
##    <int>  <int>
##  1     1      9
##  2     1      8
##  3     1      6
##  4     1      8
##  5     1     10
##  6     1      4
##  7     1      6
##  8     1      5
##  9     1      7
## 10     1      7
## # ... with 40 more rows
…
