musings of the Professor
…
within_between <- read_delim("https://raw.githubusercontent.com/tehrandavis/statsRepo/master/statsData/withinVbetween.txt", 
    delim = "\t")

## Parsed with column specification:
## cols(
##   WithinSubjects = col_integer(),
##   Lecture = col_character(),
##   Score = col_integer(),
##   BetweenSubjects = col_integer()
## )

within_between

## # A tibble: 36 x 4
##    WithinSubjects Lecture  Score BetweenSubjects
##             <int> <chr>    <int>           <int>
##  1              1 Physical    53               1
##  2              2 Physical    49               2
##  3              3 Physical    47               3
##  4              4 Physical    42               4
##  5              5 Physical    51               5
##  6              6 Physical    34               6
##  7              7 Physical    44               7
##  8              8 Physical    48               8
##  9              9 Physical    35               9
## 10             10 Physical    18              10
## # ... with 26 more rows
…
You’ll notice that the data set above is in wide format. Each subject is on a single row and each week is in its own column. Note that this is the preferred format for within subjects analysis for SPSS. However in R we want it in long format.

example1_long <- gather(example1, key = "Week", value = "Migraines", 2:6)

example1_long$Week <- as.factor(example1_long$Week)

example1_long

## # A tibble: 45 x 3
##    Subject Week  Migraines
##      <int> <fct>     <int>
##  1       1 Wk1          21
##  2       2 Wk1          20
##  3       3 Wk1          17
##  4       4 Wk1          25
##  5       5 Wk1          30
##  6       6 Wk1          19
##  7       7 Wk1          26
##  8       8 Wk1          17
##  9       9 Wk1          26
## 10       1 Wk2          22
## # ... with 35 more rows
…
You note that this data is already in long format so no need to adjust.

example2_long <- read_delim("https://raw.githubusercontent.com/tehrandavis/statsRepo/master/statsData/ANOVA6_withinEx2.txt", 
    delim = "\t")

## Parsed with column specification:
## cols(
##   Subject = col_integer(),
##   Lecture = col_character(),
##   Score = col_integer()
## )

example2_long

## # A tibble: 36 x 3
##    Subject Lecture  Score
##      <int> <chr>    <int>
##  1       1 Physical    53
##  2       2 Physical    49
##  3       3 Physical    47
##  4       4 Physical    42
##  5       5 Physical    51
##  6       6 Physical    34
##  7       7 Physical    44
##  8       8 Physical    48
##  9       9 Physical    35
## 10      10 Physical    18
## # ... with 26 more rows
…
example3 <- read_delim("https://raw.githubusercontent.com/tehrandavis/statsRepo/master/statsData/ANOVA6_withinEx3.txt", 
    delim = "\t")

## Parsed with column specification:
## cols(
##   Subject = col_integer(),
##   Recalled = col_integer(),
##   ProcessDepth = col_character(),
##   Day = col_character()
## )

example3

## # A tibble: 90 x 4
##    Subject Recalled ProcessDepth Day  
##      <int>    <int> <chr>        <chr>
##  1       1       14 High         Day1 
##  2       2       10 High         Day1 
##  3       3       13 High         Day1 
##  4       4       14 High         Day1 
##  5       5       12 High         Day1 
##  6       6        8 High         Day1 
##  7       7       13 High         Day1 
##  8       8       11 High         Day1 
##  9       9        9 High         Day1 
## 10      10       12 High         Day1 
## # ... with 80 more rows
…
