musings of the Professor
…
## Parsed with column specification:
## cols(
##   Group = col_integer(),
##   Int1 = col_integer(),
##   Int2 = col_integer(),
##   Int3 = col_integer(),
##   Int4 = col_integer(),
##   Int5 = col_integer(),
##   Int6 = col_integer()
## )

example1

## # A tibble: 24 x 7
##    Group  Int1  Int2  Int3  Int4  Int5  Int6
##    <int> <int> <int> <int> <int> <int> <int>
##  1     1   150    44    71    59   132    74
##  2     1   335   270   156   160   118   230
##  3     1   149    52    91   115    43   154
##  4     1   159    31   127   212    71   224
##  5     1   159     0    35    75    71    34
##  6     1   292   125   184   246   225   170
##  7     1   297   187    66    96   209    74
##  8     1   170    37    42    66   114    81
##  9     2   346   175   177   192   239   140
## 10     2   426   329   236    76   102   232
## # ... with 14 more rows
…
example1_long <- tidyr::gather(data = example1, key = "Interval", value = "Activity", 
    2:7)

# convert 'Interval' to factor:
example1_long$Interval <- as.factor(example1_long$Interval)

# Name the dummy variables for 'Group' & convert to factor:
example1_long$Group <- recode_factor(example1_long$Group, `1` = "Control", `2` = "Same", 
    `3` = "Different")

print(example1_long)

## # A tibble: 144 x 4
##    Group   SubjectID Interval Activity
##    <fct>       <int> <fct>       <int>
##  1 Control         1 Int1          150
##  2 Control         2 Int1          335
##  3 Control         3 Int1          149
##  4 Control         4 Int1          159
##  5 Control         5 Int1          159
##  6 Control         6 Int1          292
##  7 Control         7 Int1          297
##  8 Control         8 Int1          170
##  9 Same            9 Int1          346
## 10 Same           10 Int1          426
## # ... with 134 more rows
…
## Warning in rbind(names(probs), probs_f): number of columns of result is not
## a multiple of vector length (arg 2)

## Warning: 1 parsing failure.
## row # A tibble: 1 x 5 col     row col   expected  actual   file                                      expected   <int> <chr> <chr>     <chr>    <chr>                                     actual 1    34 <NA>  7 columns 8 colum… 'https://www.uvm.edu/~dhowell/methods8/D… file # A tibble: 1 x 5

example2

## # A tibble: 40 x 7
##    Person Condition   Sex Pretest Posttest FU6   FU12 
##    <chr>      <int> <int> <chr>   <chr>    <chr> <chr>
##  1 01             1     1 07      22       13    14   
##  2 02             1     1 25      10       17    24   
##  3 03             1     1 50      36       49    23   
##  4 04             1     1 16      38       34    24   
##  5 05             1     1 33      25       24    25   
##  6 06             1     1 10      07       23    26   
##  7 07             1     1 13      33       27    24   
##  8 08             1     1 22      20       21    11   
##  9 09             1     1 04      00       12    00   
## 10 10             1     1 17      16       20    10   
## # ... with 30 more rows

You note that this time around, there is a subject ID, Person so no need to add that. From here we can gather the data (in columns 4-7) into long format with Time as the created factor:

example2_long <- tidyr::gather(data = example2, key = "Time", value = "Freq", 4:7)

and give names to our dummy variables:

example2_long$Condition <- recode_factor(example2_long$Condition, `1` = "BST", `2` = "EC")

example2_long$Sex <- recode_factor(example2_long$Sex, `1` = "M", `2` = "F")

example2_long

## # A tibble: 160 x 5
##    Person Condition Sex   Time    Freq 
##    <chr>  <fct>     <fct> <chr>   <chr>
##  1 01     BST       M     Pretest 07   
##  2 02     BST       M     Pretest 25   
##  3 03     BST       M     Pretest 50   
##  4 04     BST       M     Pretest 16   
##  5 05     BST       M     Pretest 33   
##  6 06     BST       M     Pretest 10   
##  7 07     BST       M     Pretest 13   
##  8 08     BST       M     Pretest 22   
##  9 09     BST       M     Pretest 04   
## 10 10     BST       M     Pretest 17   
## # ... with 150 more rows
…
