musings of the Professor
…
# create a gender vector of 57 women and 50 men:
gender <- c(rep("w", 57), rep("m", 50))

# randomize gender using sample
set.seed(1)  # just so we randomize the same
gender <- sample(gender)

# add gender to our example 2 data.frame
example2$gender <- gender
show(example2)

## # A tibble: 107 x 5
##       ID Stress Symptoms lnSymptoms gender
##    <int>  <int>    <int>      <dbl> <chr> 
##  1     1     30       99       4.60 w     
##  2     2     27       94       4.54 w     
##  3     3      9       80       4.38 m     
##  4     4     20       70       4.25 m     
##  5     5      3      100       4.61 w     
##  6     6     15      109       4.69 m     
##  7     7      5       62       4.13 m     
##  8     8     10       81       4.39 m     
##  9     9     23       74       4.30 m     
## 10    10     34      121       4.80 w     
## # ... with 97 more rows
…
