musings of the Professor
…
You Madam/Sir have besmirched my honor!

OK, well is 27 isn’t enough, then how low (or high) do you need to go to pass the critical threshold? To answer this we need to construct a table of probabilities:

# 1. range of possibilites
numberHeads <- 0:50
# 2. prob of outcome
probHead <- dbinom(x = numberHeads, size = 50, prob = 0.65)
# 3. combine to data frame
probTable <- data_frame(numberHeads, probHead)
# 4. Show the data frame (table)
show(probTable)

## # A tibble: 51 x 2
##    numberHeads probHead
##          <int>    <dbl>
##  1           0 1.60e-23
##  2           1 1.48e-21
##  3           2 6.75e-20
##  4           3 2.01e-18
##  5           4 4.38e-17
##  6           5 7.48e-16
##  7           6 1.04e-14
##  8           7 1.22e-13
##  9           8 1.21e-12
## 10           9 1.05e-11
## # ... with 41 more rows
…
For example the get the 17th row of our data frame probTable:

probTable[17, ]

## # A tibble: 1 x 2
##   numberHeads   probHead
##         <int>      <dbl>
## 1          16 0.00000157

Note that if you want all rows or columns, you leave that index blank (as I did above where I wanted both columns). Keeping in mind that which(probTable$probHead<.025) gave us a vector of indecies, we can rewrite the previous chunk like so to get the important rowns in a data frame structure:

crticalValues <- which(probTable$probHead < 0.025)
probTable[crticalValues, ]

## # A tibble: 39 x 2
##    numberHeads probHead
##          <int>    <dbl>
##  1           0 1.60e-23
##  2           1 1.48e-21
##  3           2 6.75e-20
##  4           3 2.01e-18
##  5           4 4.38e-17
##  6           5 7.48e-16
##  7           6 1.04e-14
##  8           7 1.22e-13
##  9           8 1.21e-12
## 10           9 1.05e-11
## # ... with 29 more rows
…
