musings of the Professor
…
7.1.2.1 Getting data from WIDE to LONG

So the data are in wide format, each line has multiple observations of data that are being compared. Here both Before scores and After scores are on the same line. In order to make life easier for analysis and plotting in ggplot, we need to get the data into long format (Before scores and After scores are on different lines). This can be done using the gather() function from the tidyr package. We touched briefly on this function in this week’s lecture. Here we go into a little more detail.

Before gathering, one thing to consider is whether or not you have a column that defines each subject. In this case we have ID. This tells R that these data are coming from the same subject and will allow R to connect these data when performing analysis. That said, for t.test() this is not crucially important—t.test() assumes that the order of lines represents the order of subjects, e.g., the first Before line is matched to the first After line. Later on when we are doing ANOVA, however, this participant column will be important an we will need to add if it is missing.

Using gather(): It may first make sense to talk a bit about the terminology that this function uses. For every data point you have a key and a value. Think of the key as how the data point is defined or described, while the value is the measure of the data point. Typically in research we describe the data in terms of the condition under which it was collected—so if it helps, think of the key as your IV(s) and the value as your DV.

With this data, our values would be the weights of each participant. The keys would be how they are differentiated, Before and After. So for value I would input “weight” and for key I might choose “treatment” noting that the levels are Before-treatment and After-treatmemt.

One other thing that I have to consider is that I don’t want every column of my data gathered. For example in this case I don’t want my ID column gathered, but rather duplicated. Let’s look at what happens if I just gather:

gather(data = Tab7_3, key = "treatment", value = "weight")

## # A tibble: 51 x 2
##    treatment weight
##    <chr>     <chr> 
##  1 ID        01    
##  2 ID        02    
##  3 ID        03    
##  4 ID        04    
##  5 ID        05    
##  6 ID        06    
##  7 ID        07    
##  8 ID        08    
##  9 ID        09    
## 10 ID        10    
## # ... with 41 more rows

That’s not right! In order to overcome this I need to exclude the column(s) that I don’t want gathered. What R will do is copy those appropriately. This can be accomplished by stating with columns for the original data set you do not want gathered at the end of the gather() function, placing a “-” (negative sign) in front of them. In this case I don’t want the first column, ID gathered, so:

# '-1' here means exclude the first column
gather(data = Tab7_3, key = "treatment", value = "weight", -1)

## # A tibble: 34 x 3
##    ID    treatment weight
##    <chr> <chr>      <dbl>
##  1 01    Before      83.8
##  2 02    Before      83.3
##  3 03    Before      86  
##  4 04    Before      82.5
##  5 05    Before      86.7
##  6 06    Before      79.6
##  7 07    Before      76.9
##  8 08    Before      94.2
##  9 09    Before      73.4
## 10 10    Before      80.5
## # ... with 24 more rows
…
Tab7_7 <- read_delim("https://www.uvm.edu/~dhowell/methods8/DataFiles/Tab7-7.dat", 
    delim = "\t")

## Parsed with column specification:
## cols(
##   ID = col_character(),
##   Score = col_integer(),
##   Group = col_integer()
## )

As before, let’s take a look at the file structure:

show(Tab7_7)

## # A tibble: 23 x 3
##    ID    Score Group
##    <chr> <int> <int>
##  1 01        4     1
##  2 02        9     1
##  3 03       12     1
##  4 04        8     1
##  5 05        9     1
##  6 06       13     1
##  7 07       12     1
##  8 08       13     1
##  9 09       13     1
## 10 10        7     1
## # ... with 13 more rows

I want to look at this example as it give is an opportunity to deal with another common issue in data cleaning. If you take a look at Group you see it’s either 1 or 2. Based upon Howell Table 7.7 we can deduce that Group 1 are the control subjects and Group 2 are the threat subjects. Using numbers instead of names to identify levels of a factor is a convention from older methods and software. In more modern software you don’t need to do this sort of dummy coding (the software works this out in the background).

If you want to change this, you can use the recode() function from dplyr package in the tidyverse (https://dplyr.tidyverse.org/reference/recode.html). For what it’s worth there are several other ways to do this including a recode() function in car. See http://rprogramming.net/recode-data-in-r/ for examples.

Here I’m just going to overwrite the Group column with the recoded names:

Tab7_7$Group <- dplyr::recode(Tab7_7$Group, `1` = "Control", `2` = "Threat")
show(Tab7_7)

## # A tibble: 23 x 3
##    ID    Score Group  
##    <chr> <int> <chr>  
##  1 01        4 Control
##  2 02        9 Control
##  3 03       12 Control
##  4 04        8 Control
##  5 05        9 Control
##  6 06       13 Control
##  7 07       12 Control
##  8 08       13 Control
##  9 09       13 Control
## 10 10        7 Control
## # ... with 13 more rows
…
